{"info":{"count":493,"pages":25,"next":"https://rickandmortyapi.com/api/character/?page=6","prev":"https://rickandmortyapi.com/api/character/?page=4"},"results":[{"id":81,"name":"Crocubot","status":"Dead","species":"Humanoid","type":"Robot-Crocodile hybrid","gender":"Male","origin":{"name":"unknown","url":""},"location":{"name":"Worldender's lair","url":"https://rickandmortyapi.com/api/location/4"},"image":"https://rickandmortyapi.com/api/character/avatar/81.jpeg","episode":["https://rickandmortyapi.com/api/episode/25"],"url":"https://rickandmortyapi.com/api/character/81","created":"2017-11-30T14:23:41.053Z"},{"id":82,"name":"Cronenberg Rick","status":"unknown","species":"Cronenberg","type":"","gender":"Male","origin":{"name":"Cronenberg Earth","url":"https://rickandmortyapi.com/api/location/12"},"location":{"name":"Earth (C-137)","url":"https://rickandmortyapi.com/api/location/1"},"image":"https://rickandmortyapi.com/api/character/avatar/82.jpeg","episode":["https://rickandmortyapi.com/api/episode/6","https://rickandmortyapi.com/api/episode/10"],"url":"https://rickandmortyapi.com/api/character/82","created":"2017-11-30T14:28:54.596Z"},{"id":83,"name":"Cronenberg Morty","status":"unknown","species":"Cronenberg","type":"","gender":"Male","origin":{"name":"Cronenberg Earth","url":"https://rickandmortyapi.com/api/location/12"},"location":{"name":"Earth (C-137)","url":"https://rickandmortyapi.com/api/location/1"},"image":"https://rickandmortyapi.com/api/character/avatar/83.jpeg","episode":["https://rickandmortyapi.com/api/episode/6","https://rickandmortyapi.com/api/episode/10"],"url":"https://rickandmortyapi.com/api/character/83","created":"2017-11-30T20:02:29.204Z"},{"id":84,"name":"Cult Leader Morty","status":"Alive","species":"Human","type":"","gender":"Male","origin":{"name":"unknown","url":""},"location":{"name":"Hideout Planet","url":"https://rickandmortyapi.com/api/location/27"},"image":"https://rickandmortyapi.com/api/character/avatar/84.jpeg","episode":["https://rickandmortyapi.com/api/episode/10"],"url":"https://rickandmortyapi.com/api/character/84","created":"2017-11-30T20:41:48.080Z"},{"id":85,"name":"Cyclops Morty","status":"Alive","species":"Humanoid","type":"","gender":"Male","origin":{"name":"unknown","url":""},"location":{"name":"Citadel of Ricks","url":"https://rickandmortyapi.com/api/location/3"},"image":"https://rickandmortyapi.com/api/character/avatar/85.jpeg","episode":["https://rickandmortyapi.com/api/episode/10","https://rickandmortyapi.com/api/episode/28"],"url":"https://rickandmortyapi.com/api/character/85","created":"2017-11-30T20:49:52.133Z"},{"id":86,"name":"Cyclops Rick","status":"Dead","species":"Humanoid","type":"","gender":"Male","origin":{"name":"unknown","url":""},"location":{"name":"Citadel of Ricks","url":"https://rickandmortyapi.com/api/location/3"},"image":"https://rickandmortyapi.com/api/character/avatar/86.jpeg","episode":["https://rickandmortyapi.com/api/episode/10","https://rickandmortyapi.com/api/episode/22","https://rickandmortyapi.com/api/episode/28"],"url":"https://rickandmortyapi.com/api/character/86","created":"2017-11-30T20:53:10.382Z"},{"id":87,"name":"Cynthia","status":"Dead","species":"Alien","type":"Zigerion","gender":"Female","origin":{"name":"unknown","url":""},"location":{"name":"Zigerion's Base","url":"https://rickandmortyapi.com/api/location/46"},"image":"https://rickandmortyapi.com/api/character/avatar/87.jpeg","episode":["https://rickandmortyapi.com/api/episode/4"],"url":"https://rickandmortyapi.com/api/character/87","created":"2017-11-30T21:08:32.534Z"},{"id":88,"name":"Cynthia","status":"Alive","species":"Human","type":"","gender":"Female","origin":{"name":"Earth (Replacement Dimension)","url":"https://rickandmortyapi.com/api/location/20"},"location":{"name":"Earth (Replacement Dimension)","url":"https://rickandmortyapi.com/api/location/20"},"image":"https://rickandmortyapi.com/api/character/avatar/88.jpeg","episode":["https://rickandmortyapi.com/api/episode/8","https://rickandmortyapi.com/api/episode/9","https://rickandmortyapi.com/api/episode/11","https://rickandmortyapi.com/api/episode/25"],"url":"https://rickandmortyapi.com/api/character/88","created":"2017-11-30T21:16:35.633Z"},{"id":89,"name":"Dale","status":"Dead","species":"Humanoid","type":"Giant","gender":"Male","origin":{"name":"Giant's Town","url":"https://rickandmortyapi.com/api/location/14"},"location":{"name":"Giant's Town","url":"https://rickandmortyapi.com/api/location/14"},"image":"https://rickandmortyapi.com/api/character/avatar/89.jpeg","episode":["https://rickandmortyapi.com/api/episode/5"],"url":"https://rickandmortyapi.com/api/character/89","created":"2017-12-01T10:32:08.340Z"},{"id":90,"name":"Daron Jefferson","status":"Alive","species":"Alien","type":"Cone-nippled alien","gender":"Male","origin":{"name":"Unity's Planet","url":"https://rickandmortyapi.com/api/location/28"},"location":{"name":"Unity's Planet","url":"https://rickandmortyapi.com/api/location/28"},"image":"https://rickandmortyapi.com/api/character/avatar/90.jpeg","episode":["https://rickandmortyapi.com/api/episode/14"],"url":"https://rickandmortyapi.com/api/character/90","created":"2017-12-01T10:54:34.736Z"},{"id":91,"name":"David Letterman","status":"Alive","species":"Human","type":"","gender":"Male","origin":{"name":"Earth (C-500A)","url":"https://rickandmortyapi.com/api/location/23"},"location":{"name":"Earth (C-500A)","url":"https://rickandmortyapi.com/api/location/23"},"image":"https://rickandmortyapi.com/api/character/avatar/91.jpeg","episode":["https://rickandmortyapi.com/api/episode/8"],"url":"https://rickandmortyapi.com/api/character/91","created":"2017-12-01T11:12:25.105Z"},{"id":92,"name":"Davin","status":"Dead","species":"Human","type":"","gender":"Male","origin":{"name":"Earth (C-137)","url":"https://rickandmortyapi.com/api/location/1"},"location":{"name":"Earth (C-137)","url":"https://rickandmortyapi.com/api/location/1"},"image":"https://rickandmortyapi.com/api/character/avatar/92.jpeg","episode":["https://rickandmortyapi.com/api/episode/1","https://rickandmortyapi.com/api/episode/6"],"url":"https://rickandmortyapi.com/api/character/92","created":"2017-12-01T11:20:51.247Z"},{"id":93,"name":"Diablo Verde","status":"Dead","species":"Humanoid","type":"Demon","gender":"Male","origin":{"name":"unknown","url":""},"location":{"name":"Dorian 5","url":"https://rickandmortyapi.com/api/location/29"},"image":"https://rickandmortyapi.com/api/character/avatar/93.jpeg","episode":["https://rickandmortyapi.com/api/episode/25"],"url":"https://rickandmortyapi.com/api/character/93","created":"2017-12-01T11:36:16.467Z"},{"id":94,"name":"Diane Sanchez","status":"unknown","species":"Human","type":"","gender":"Female","origin":{"name":"Earth (Unknown dimension)","url":"https://rickandmortyapi.com/api/location/30"},"location":{"name":"Earth (Unknown dimension)","url":"https://rickandmortyapi.com/api/location/30"},"image":"https://rickandmortyapi.com/api/character/avatar/94.jpeg","episode":["https://rickandmortyapi.com/api/episode/22"],"url":"https://rickandmortyapi.com/api/character/94","created":"2017-12-01T11:49:43.929Z"},{"id":95,"name":"Dipper and Mabel Mortys","status":"unknown","species":"Human","type":"","gender":"unknown","origin":{"name":"unknown","url":""},"location":{"name":"Citadel of Ricks","url":"https://rickandmortyapi.com/api/location/3"},"image":"https://rickandmortyapi.com/api/character/avatar/95.jpeg","episode":["https://rickandmortyapi.com/api/episode/22"],"url":"https://rickandmortyapi.com/api/character/95","created":"2017-12-01T11:54:36.670Z"},{"id":96,"name":"Tuberculosis","status":"Dead","species":"Disease","type":"","gender":"unknown","origin":{"name":"Anatomy Park","url":"https://rickandmortyapi.com/api/location/5"},"location":{"name":"Anatomy Park","url":"https://rickandmortyapi.com/api/location/5"},"image":"https://rickandmortyapi.com/api/character/avatar/96.jpeg","episode":["https://rickandmortyapi.com/api/episode/3"],"url":"https://rickandmortyapi.com/api/character/96","created":"2017-12-01T11:59:04.796Z"},{"id":97,"name":"Gonorrhea","status":"Dead","species":"Disease","type":"","gender":"unknown","origin":{"name":"Anatomy Park","url":"https://rickandmortyapi.com/api/location/5"},"location":{"name":"Anatomy Park","url":"https://rickandmortyapi.com/api/location/5"},"image":"https://rickandmortyapi.com/api/character/avatar/97.jpeg","episode":["https://rickandmortyapi.com/api/episode/3"],"url":"https://rickandmortyapi.com/api/character/97","created":"2017-12-01T12:00:27.028Z"},{"id":98,"name":"Hepatitis A","status":"Dead","species":"Disease","type":"","gender":"unknown","origin":{"name":"Anatomy Park","url":"https://rickandmortyapi.com/api/location/5"},"location":{"name":"Anatomy Park","url":"https://rickandmortyapi.com/api/location/5"},"image":"https://rickandmortyapi.com/api/character/avatar/98.jpeg","episode":["https://rickandmortyapi.com/api/episode/3"],"url":"https://rickandmortyapi.com/api/character/98","created":"2017-12-01T12:01:43.742Z"},{"id":99,"name":"Hepatitis C","status":"Dead","species":"Disease","type":"","gender":"unknown","origin":{"name":"Anatomy Park","url":"https://rickandmortyapi.com/api/location/5"},"location":{"name":"Anatomy Park","url":"https://rickandmortyapi.com/api/location/5"},"image":"https://rickandmortyapi.com/api/character/avatar/99.jpeg","episode":["https://rickandmortyapi.com/api/episode/3"],"url":"https://rickandmortyapi.com/api/character/99","created":"2017-12-01T12:02:00.935Z"},{"id":100,"name":"Bubonic Plague","status":"Dead","species":"Disease","type":"","gender":"unknown","origin":{"name":"Anatomy Park","url":"https://rickandmortyapi.com/api/location/5"},"location":{"name":"Anatomy Park","url":"https://rickandmortyapi.com/api/location/5"},"image":"https://rickandmortyapi.com/api/character/avatar/100.jpeg","episode":["https://rickandmortyapi.com/api/episode/3"],"url":"https://rickandmortyapi.com/api/character/100","created":"2017-12-01T12:02:21.611Z"}]}