{"info":{"count":22,"pages":2,"next":"https://rickandmortyapi.com/api/location/?page=2&name=earth","prev":""},"results":[{"id":1,"name":"Earth (C-137)","type":"Planet","dimension":"Dimension C-137","residents":["https://rickandmortyapi.com/api/character/38","https://rickandmortyapi.com/api/character/45","https://rickandmortyapi.com/api/character/71","https://rickandmortyapi.com/api/character/82","https://rickandmortyapi.com/api/character/83","https://rickandmortyapi.com/api/character/92","https://rickandmortyapi.com/api/character/112","https://rickandmortyapi.com/api/character/114","https://rickandmortyapi.com/api/character/116","https://rickandmortyapi.com/api/character/117","https://rickandmortyapi.com/api/character/120","https://rickandmortyapi.com/api/character/127","https://rickandmortyapi.com/api/character/155","https://rickandmortyapi.com/api/character/169","https://rickandmortyapi.com/api/character/175","https://rickandmortyapi.com/api/character/179","https://rickandmortyapi.com/api/character/186","https://rickandmortyapi.com/api/character/201","https://rickandmortyapi.com/api/character/216","https://rickandmortyapi.com/api/character/239","https://rickandmortyapi.com/api/character/271","https://rickandmortyapi.com/api/character/302","https://rickandmortyapi.com/api/character/303","https://rickandmortyapi.com/api/character/338","https://rickandmortyapi.com/api/character/343","https://rickandmortyapi.com/api/character/356","https://rickandmortyapi.com/api/character/394"],"url":"https://rickandmortyapi.com/api/location/1","created":"2017-11-10T12:42:04.162Z"},{"id":8,"name":"Post-Apocalyptic Earth","type":"Planet","dimension":"Post-Apocalyptic Dimension","residents":["https://rickandmortyapi.com/api/character/25","https://rickandmortyapi.com/api/character/52","https://rickandmortyapi.com/api/character/68","https://rickandmortyapi.com/api/character/110","https://rickandmortyapi.com/api/character/111","https://rickandmortyapi.com/api/character/140","https://rickandmortyapi.com/api/character/156","https://rickandmortyapi.com/api/character/228","https://rickandmortyapi.com/api/character/323","https://rickandmortyapi.com/api/character/342"],"url":"https://rickandmortyapi.com/api/location/8","created":"2017-11-10T13:09:22.551Z"},{"id":12,"name":"Cronenberg Earth","type":"Planet","dimension":"Cronenberg Dimension","residents":[],"url":"https://rickandmortyapi.com/api/location/12","created":"2017-11-18T11:29:27.857Z"},{"id":17,"name":"Earth (5-126)","type":"Planet","dimension":"Dimension 5-126","residents":[],"url":"https://rickandmortyapi.com/api/location/17","created":"2017-11-18T11:41:08.486Z"},{"id":20,"name":"Earth (Replacement Dimension)","type":"Planet","dimension":"Replacement Dimension","residents":["https://rickandmortyapi.com/api/character/1","https://rickandmortyapi.com/api/character/2","https://rickandmortyapi.com/api/character/3","https://rickandmortyapi.com/api/character/4","https://rickandmortyapi.com/api/character/5","https://rickandmortyapi.com/api/character/9","https://rickandmortyapi.com/api/character/11","https://rickandmortyapi.com/api/character/13","https://rickandmortyapi.com/api/character/16","https://rickandmortyapi.com/api/character/31","https://rickandmortyapi.com/api/character/32","https://rickandmortyapi.com/api/character/50","https://rickandmortyapi.com/api/character/58","https://rickandmortyapi.com/api/character/59","https://rickandmortyapi.com/api/character/64","https://rickandmortyapi.com/api/character/66","https://rickandmortyapi.com/api/character/76","https://rickandmortyapi.com/api/character/88","https://rickandmortyapi.com/api/character/103","https://rickandmortyapi.com/api/character/107","https://rickandmortyapi.com/api/character/109","https://rickandmortyapi.com/api/character/113","https://rickandmortyapi.com/api/character/115","https://rickandmortyapi.com/api/character/124","https://rickandmortyapi.com/api/character/128","https://rickandmortyapi.com/api/character/137","https://rickandmortyapi.com/api/character/138","https://rickandmortyapi.com/api/character/141","https://rickandmortyapi.com/api/character/147","https://rickandmortyapi.com/api/character/149","https://rickandmortyapi.com/api/character/151","https://rickandmortyapi.com/api/character/154","https://rickandmortyapi.com/api/character/166","https://rickandmortyapi.com/api/character/167","https://rickandmortyapi.com/api/character/170","https://rickandmortyapi.com/api/character/171","https://rickandmortyapi.com/api/character/172","https://rickandmortyapi.com/api/character/180","https://rickandmortyapi.com/api/character/181","https://rickandmortyapi.com/api/character/182","https://rickandmortyapi.com/api/character/185","https://rickandmortyapi.com/api/character/189","https://rickandmortyapi.com/api/character/190","https://rickandmortyapi.com/api/character/210","https://rickandmortyapi.com/api/character/217","https://rickandmortyapi.com/api/character/218","https://rickandmortyapi.com/api/character/219","https://rickandmortyapi.com/api/character/227","https://rickandmortyapi.com/api/character/230","https://rickandmortyapi.com/api/character/233","https://rickandmortyapi.com/api/character/234","https://rickandmortyapi.com/api/character/236","https://rickandmortyapi.com/api/character/237","https://rickandmortyapi.com/api/character/240","https://rickandmortyapi.com/api/character/241","https://rickandmortyapi.com/api/character/243","https://rickandmortyapi.com/api/character/245","https://rickandmortyapi.com/api/character/248","https://rickandmortyapi.com/api/character/251","https://rickandmortyapi.com/api/character/255","https://rickandmortyapi.com/api/character/259","https://rickandmortyapi.com/api/character/262","https://rickandmortyapi.com/api/character/265","https://rickandmortyapi.com/api/character/272","https://rickandmortyapi.com/api/character/276","https://rickandmortyapi.com/api/character/280","https://rickandmortyapi.com/api/character/292","https://rickandmortyapi.com/api/character/293","https://rickandmortyapi.com/api/character/324","https://rickandmortyapi.com/api/character/326","https://rickandmortyapi.com/api/character/327","https://rickandmortyapi.com/api/character/332","https://rickandmortyapi.com/api/character/335","https://rickandmortyapi.com/api/character/341","https://rickandmortyapi.com/api/character/346","https://rickandmortyapi.com/api/character/347","https://rickandmortyapi.com/api/character/352","https://rickandmortyapi.com/api/character/353","https://rickandmortyapi.com/api/character/354","https://rickandmortyapi.com/api/character/357","https://rickandmortyapi.com/api/character/360","https://rickandmortyapi.com/api/character/361","https://rickandmortyapi.com/api/character/363","https://rickandmortyapi.com/api/character/365","https://rickandmortyapi.com/api/character/374","https://rickandmortyapi.com/api/character/377","https://rickandmortyapi.com/api/character/390","https://rickandmortyapi.com/api/character/391","https://rickandmortyapi.com/api/character/401","https://rickandmortyapi.com/api/character/402","https://rickandmortyapi.com/api/character/405","https://rickandmortyapi.com/api/character/423","https://rickandmortyapi.com/api/character/435","https://rickandmortyapi.com/api/character/437","https://rickandmortyapi.com/api/character/438","https://rickandmortyapi.com/api/character/439","https://rickandmortyapi.com/api/character/440","https://rickandmortyapi.com/api/character/452","https://rickandmortyapi.com/api/character/453","https://rickandmortyapi.com/api/character/467","https://rickandmortyapi.com/api/character/468","https://rickandmortyapi.com/api/character/469","https://rickandmortyapi.com/api/character/471","https://rickandmortyapi.com/api/character/492","https://rickandmortyapi.com/api/character/493"],"url":"https://rickandmortyapi.com/api/location/20","created":"2017-11-18T19:33:01.173Z"},{"id":23,"name":"Earth (C-500A)","type":"Planet","dimension":"Dimension C-500A","residents":["https://rickandmortyapi.com/api/character/37","https://rickandmortyapi.com/api/character/91","https://rickandmortyapi.com/api/character/176","https://rickandmortyapi.com/api/character/183","https://rickandmortyapi.com/api/character/195"],"url":"https://rickandmortyapi.com/api/location/23","created":"2017-11-18T20:58:15.178Z"},{"id":26,"name":"Earth (K-83)","type":"Planet","dimension":"Dimension K-83","residents":[],"url":"https://rickandmortyapi.com/api/location/26","created":"2017-11-30T11:41:11.452Z"},{"id":30,"name":"Earth (Unknown dimension)","type":"Planet","dimension":"unknown","residents":["https://rickandmortyapi.com/api/character/94"],"url":"https://rickandmortyapi.com/api/location/30","created":"2017-12-01T11:49:43.923Z"},{"id":31,"name":"Earth (J19ζ7)","type":"Planet","dimension":"Dimension J19ζ7","residents":[],"url":"https://rickandmortyapi.com/api/location/31","created":"2017-12-01T12:29:27.976Z"},{"id":33,"name":"Eric Stoltz Mask Earth","type":"Planet","dimension":"Eric Stoltz Mask Dimension","residents":[],"url":"https://rickandmortyapi.com/api/location/33","created":"2017-12-26T13:43:29.291Z"},{"id":34,"name":"Earth (Evil Rick's Target Dimension)","type":"Planet","dimension":"Evil Rick's Target Dimension","residents":["https://rickandmortyapi.com/api/character/39","https://rickandmortyapi.com/api/character/177","https://rickandmortyapi.com/api/character/232","https://rickandmortyapi.com/api/character/290","https://rickandmortyapi.com/api/character/339"],"url":"https://rickandmortyapi.com/api/location/34","created":"2017-12-26T15:35:20.499Z"},{"id":42,"name":"Earth (Giant Telepathic Spiders Dimension)","type":"Planet","dimension":"Giant Telepathic Spiders Dimension","residents":["https://rickandmortyapi.com/api/character/159","https://rickandmortyapi.com/api/character/160"],"url":"https://rickandmortyapi.com/api/location/42","created":"2017-12-29T16:03:28.720Z"},{"id":52,"name":"Earth (K-22)","type":"Planet","dimension":"Dimension K-22","residents":[],"url":"https://rickandmortyapi.com/api/location/52","created":"2017-12-30T16:33:49.507Z"},{"id":58,"name":"Earth (D-99)","type":"Planet","dimension":"Dimension D-99","residents":[],"url":"https://rickandmortyapi.com/api/location/58","created":"2017-12-31T19:49:55.109Z"},{"id":59,"name":"Earth (D716)","type":"Planet","dimension":"Dimension D716","residents":[],"url":"https://rickandmortyapi.com/api/location/59","created":"2017-12-31T19:51:33.170Z"},{"id":60,"name":"Earth (D716-B)","type":"Planet","dimension":"Dimension D716-B","residents":[],"url":"https://rickandmortyapi.com/api/location/60","created":"2017-12-31T19:55:25.026Z"},{"id":61,"name":"Earth (D716-C)","type":"Planet","dimension":"Dimension D716-C","residents":[],"url":"https://rickandmortyapi.com/api/location/61","created":"2017-12-31T19:57:36.468Z"},{"id":62,"name":"Earth (J-22)","type":"Planet","dimension":"Dimension J-22","residents":[],"url":"https://rickandmortyapi.com/api/location/62","created":"2017-12-31T20:16:52.263Z"},{"id":69,"name":"Earth (C-35)","type":"Planet","dimension":"Dimension C-35","residents":[],"url":"https://rickandmortyapi.com/api/location/69","created":"2018-04-15T16:55:56.212Z"},{"id":71,"name":"Earth (Pizza Dimension)","type":"Planet","dimension":"Pizza Dimension","residents":["https://rickandmortyapi.com/api/character/424","https://rickandmortyapi.com/api/character/425"],"url":"https://rickandmortyapi.com/api/location/71","created":"2018-04-15T17:55:04.478Z"}]}